\relax 
\@writefile{toc}{\contentsline {paragraph}{High impact on project succes}{1}}
\@writefile{toc}{\contentsline {paragraph}{Example: London Ambulance Service}{1}}
\@writefile{toc}{\contentsline {paragraph}{Defects in RE cause high costs}{2}}
\@writefile{toc}{\contentsline {paragraph}{System boundary}{2}}
\@writefile{toc}{\contentsline {paragraph}{Context boundary}{2}}
